{
    "KPackageStructure": "KWin/Effect",
    "KPlugin": {
        "Authors": [
            {
                "Email": "mart@kde.org",
                "Name": "Marco Martin",
                "Name[ar]": "ماركو مارتن",
                "Name[ast]": "Marco Martin",
                "Name[az]": "Marco Martin",
                "Name[be]": "Marco Martin",
                "Name[bg]": "Marco Martin",
                "Name[ca@valencia]": "Marco Martin",
                "Name[ca]": "Marco Martin",
                "Name[cs]": "Marco Martin",
                "Name[de]": "Marco Martin",
                "Name[en_GB]": "Marco Martin",
                "Name[eo]": "Marco Martin",
                "Name[es]": "Marco Martin",
                "Name[et]": "Marco Martin",
                "Name[eu]": "Marco Martin",
                "Name[fi]": "Marco Martin",
                "Name[fr]": "Marco Martin",
                "Name[gl]": "Marco Martin",
                "Name[he]": "מרקו מרטין",
                "Name[hu]": "Marco Martin",
                "Name[ia]": "Marco Martin",
                "Name[id]": "Marco Martin",
                "Name[it]": "Marco Martin",
                "Name[ja]": "Marco Martin",
                "Name[ka]": "Marco Martin",
                "Name[ko]": "Marco Martin",
                "Name[lt]": "Marco Martin",
                "Name[nl]": "Marco Martin",
                "Name[nn]": "Marco Martin",
                "Name[pl]": "Marco Martin",
                "Name[pt]": "Marco Martin",
                "Name[pt_BR]": "Marco Martin",
                "Name[ro]": "Marco Martin",
                "Name[ru]": "Marco Martin",
                "Name[sk]": "Marco Martin",
                "Name[sl]": "Marco Martin",
                "Name[sv]": "Marco Martin",
                "Name[ta]": "மார்கோ மார்ட்டின்",
                "Name[tr]": "Marco Martin",
                "Name[uk]": "Marco Martin",
                "Name[vi]": "Marco Martin",
                "Name[x-test]": "xxMarco Martinxx",
                "Name[zh_CN]": "Marco Martin",
                "Name[zh_TW]": "Marco Martin"
            }
        ],
        "Category": "Appearance",
        "Description": "Cross fade animation when Tooltips or Notifications change their geometry",
        "Description[ar]": "تحريك التلاشي المتقاطع عندما يغير التلميح أو الإشعار من أبعاده",
        "Description[be]": "Анімацыя згасання пры змене геаметрыі выплыўных падказак і апавяшчэнняў",
        "Description[bg]": "Кръстосано преливане, когато подсказките или известията променят геометрията си",
        "Description[ca@valencia]": "Animació d'esvaïment creuat quan els consells d'eines o les notificacions canvien la seua geometria",
        "Description[ca]": "Animació d'esvaïment creuat quan els consells d'eines o les notificacions canvien la seva geometria",
        "Description[de]": "Überblendende Animationen, wenn Kurzinfos oder Benachrichtigungen ihre Geometrie ändern",
        "Description[en_GB]": "Cross fade animation when Tooltips or Notifications change their geometry",
        "Description[eo]": "Krucfada animacio kiam Konsiletoj aŭ Sciigoj ŝanĝas sian geometrion",
        "Description[es]": "Animación cruzada cuando las ayudas emergentes o las notificaciones cambian su geometría",
        "Description[et]": "Animatsioon hääbumisega, kui kohtspikrid või märguanded muudavad geomeetriat",
        "Description[eu]": "Desagertze gurutzatua tresnen argibideek edo jakinarazpenek geometria aldatzen dutenean",
        "Description[fi]": "Häivytysanimaatio työkaluvihjeiden tai ilmoitusten muutettua muotoaan",
        "Description[fr]": "Animation en fondu enchaîné lorsque des infobulles ou des notifications modifient leurs géométries",
        "Description[gl]": "Usar unha animación de esvaemento cando a xeometría das mensaxes emerxentes de axuda ou notificación cambia.",
        "Description[he]": "הנפשת עמעום צולבת כשחלוניות עצה או התראות משנים את גודלם/מיקומם",
        "Description[ia]": "Transversa animation distingite quando Consilios o Notificationes cambia le lor geometria",
        "Description[it]": "Animazione in dissolvenza quando i suggerimenti e le notifiche cambiano la loro geometria",
        "Description[ja]": "ツールチップや通知ポップアップのジオメトリ変更時のクロスフェードアニメーション",
        "Description[ka]": "ჯვროვანი მინავლება, როცა მინიშნებები ან გაფრთხილებები გეომეტრიას იცვლიან",
        "Description[ko]": "풍선 도움말이나 알림 크기가 변경될 때 크로스페이드 애니메이션 사용",
        "Description[nl]": "Verwissel animatie van opkomen/vervagen wanneer tekstballonnen of meldingen hun geometrie wijzigen",
        "Description[nn]": "Krysstoningsanimasjon når hjelpebobler eller varslingar endrar form",
        "Description[pl]": "Efekt zmiany kształtu podpowiedzi i powiadomień przy zmianie ich geometrii",
        "Description[pt]": "Animações desvanecidas quando as dicas ou notificações mudam de tamanho",
        "Description[ru]": "При изменении формы всплывающих подсказок или уведомлений они плавно растягиваются или сжимаются",
        "Description[sk]": "Animácia krížového prelínania, keď sa zmení geometria nápovedy k nástrojom alebo oznámení",
        "Description[sl]": "Animacija navzkrižnega preliva, ko se orodnim namigom ali obvestilom spremeni geometrija",
        "Description[ta]": "கருவித்துப்புகளின் மற்றும் அறிவிப்புகளின் அளவை மாற்றும்போது அவற்றை மங்கசெய்து மாற்றும்",
        "Description[tr]": "Araç ipuçları veya bildirimler boyutları değiştiğinde gösterilecek çapraz geçiş canlandırması",
        "Description[uk]": "Анімація зі зміною освітленості під час зміни геометрії панелей підказок і сповіщень",
        "Description[vi]": "Hiệu ứng động mờ dần khi các chú giải hay thông báo thay đổi hình dạng",
        "Description[x-test]": "xxCross fade animation when Tooltips or Notifications change their geometryxx",
        "Description[zh_CN]": "工具提示/通知信息框大小变化时呈现过渡动效",
        "Description[zh_TW]": "當工具提示或通知變更位置時交錯淡出動畫",
        "EnabledByDefault": true,
        "Icon": "preferences-system-windows-effect-morphingpopups",
        "Id": "morphingpopups",
        "License": "GPL",
        "Name": "Morphing Popups",
        "Name[ar]": "المنبثقات المتحورة",
        "Name[be]": "Трансфармаванне выплыўных акон",
        "Name[bg]": "Променящи се изскачащи прозорци",
        "Name[ca@valencia]": "Missatges emergents en metamorfosi",
        "Name[ca]": "Missatges emergents en metamorfosi",
        "Name[cs]": "Morfující vyskakovací okna",
        "Name[de]": "Verformende Aufklappfenster",
        "Name[en_GB]": "Morphing Popups",
        "Name[eo]": "Morphing Ŝprucfenestroj",
        "Name[es]": "Transformación de ventanas emergentes",
        "Name[eu]": "Eraldatzen diren gainerakorrak",
        "Name[fi]": "Ponnahdusikkunoiden muodonmuutos",
        "Name[fr]": "Effectuer un fondu enchaîné des infobulles",
        "Name[gl]": "Xanelas emerxentes cambiantes",
        "Name[he]": "חלוניות צצות משתנות",
        "Name[ia]": "Popups de Morphing",
        "Name[it]": "Finestre a comparsa che si trasformano",
        "Name[ja]": "変形するポップアップ",
        "Name[ka]": "ტრანსფორმირებადი მხტუნარები",
        "Name[ko]": "변형되는 팝업",
        "Name[nl]": "Morphing pop-ups",
        "Name[nn]": "Formendring for sprettoppvindauge",
        "Name[pl]": "Zmiennokształtne okna",
        "Name[pt]": "Janelas Mutantes",
        "Name[pt_BR]": "Mensagens com mudança de forma",
        "Name[ru]": "Анимация преобразования всплывающих окон",
        "Name[sk]": "Postupne sa meniace vyskakovacie okná",
        "Name[sl]": "Pogovorna okna pretvorb",
        "Name[ta]": "தெரித்தெழுபவை திரிவது",
        "Name[tr]": "Dönüşen Açılır Pencereler",
        "Name[uk]": "Аморфні контекстні панелі",
        "Name[vi]": "Ô bật lên biến dạng",
        "Name[x-test]": "xxMorphing Popupsxx",
        "Name[zh_CN]": "气泡大小渐变动画",
        "Name[zh_TW]": "交錯彈出視窗"
    },
    "X-KDE-Ordering": 60,
    "X-KWin-Video-Url": "https://files.kde.org/plasma/kwin/effect-videos/morphingpopups.ogv",
    "X-Plasma-API": "javascript"
}
