{
    "KPackageStructure": "KWin/Script",
    "KPlugin": {
        "Authors": [
            {
                "Email": "mgraesslin@kde.org",
                "Name": "Martin Gräßlin",
                "Name[ar]": "مارتن جراجلين",
                "Name[be]": "Martin Gräßlin",
                "Name[bg]": "Martin Gräßlin",
                "Name[ca@valencia]": "Martin Gräßlin",
                "Name[ca]": "Martin Gräßlin",
                "Name[cs]": "Martin Gräßlin",
                "Name[de]": "Martin Gräßlin",
                "Name[en_GB]": "Martin Gräßlin",
                "Name[eo]": "Martin Gräßlin",
                "Name[es]": "Martin Gräßlin",
                "Name[et]": "Martin Gräßlin",
                "Name[eu]": "Martin Gräßlin",
                "Name[fi]": "Martin Gräßlin",
                "Name[fr]": "Martin Gräßlin",
                "Name[gl]": "Martin Gräßlin.",
                "Name[he]": "מרטין גרייסלין",
                "Name[ia]": "Martin Gräßlin",
                "Name[it]": "Martin Gräßlin",
                "Name[ja]": "Martin Gräßlin",
                "Name[ka]": "მარტინ გრესსლინი",
                "Name[ko]": "Martin Gräßlin",
                "Name[nl]": "Martin Gräßlin",
                "Name[nn]": "Martin Gräßlin",
                "Name[pl]": "Martin Gräßlin",
                "Name[pt]": "Martin Gräßlin",
                "Name[ru]": "Martin Gräßlin",
                "Name[sk]": "Martin Gräßlin",
                "Name[sl]": "Martin Gräßlin",
                "Name[ta]": "மார்ட்டின் கிராஸ்லின்",
                "Name[tr]": "Martin Gräßlin",
                "Name[uk]": "Martin Gräßlin",
                "Name[vi]": "Martin Gräßlin",
                "Name[x-test]": "xxMartin Gräßlinxx",
                "Name[zh_CN]": "Martin Gräßlin",
                "Name[zh_TW]": "Martin Gräßlin"
            }
        ],
        "Description": "Hides all windows marked as Skip Taskbar to be also excluded from window switchers (e.g. Alt+Tab)",
        "Description[ar]": "يخفي جميع النوافذ المعلّمة على أنها \"تخطَ شريط المهام\"  من مبدلات النوافذ (مثل Alt + Tab)",
        "Description[be]": "Хавае ўсе вокны, якія трэба хаваць для панэлі задач, для сродку пераключэння акон (напрыклад, Alt+Tab)",
        "Description[bg]": "Скрива всички прозорци, с включено  \"Пропускане на лентата на задачите\", за да не се превключват  (напр. с Alt+Tab)",
        "Description[ca@valencia]": "Oculta totes les finestres marcades com a «Ignora la barra de tasques» que també s'excloguen del commutador de finestres (p. ex., «Alt+Tab»)",
        "Description[ca]": "Oculta totes les finestres marcades com a «Ignora la barra de tasques» que també s'excloguin del commutador de finestres (p. ex. Alt+Tab)",
        "Description[cs]": "Skryje všechna okna označená k přeskočení v pruhu úloh také pro přepínače oken (např. Alt+Tab)",
        "Description[de]": "Alle Fenster, die so eingestellt sind, dass sie nicht in der Fensterleiste angezeigt werden, werden ebenfalls aus den Fensterwechslern (z. B. Alt+Tab) ausgeschlossen",
        "Description[en_GB]": "Hides all windows marked as Skip Taskbar to be also excluded from window switchers (e.g. Alt+Tab)",
        "Description[eo]": "Kaŝas ĉiujn fenestrojn markitajn kiel Skip Taskbar por ankaŭ esti ekskluditaj de fenestraj ŝaltiloj (ekz. Alt+Tab)",
        "Description[es]": "Oculta todas las ventanas marcadas como «Omitir barra de tareas» para que también se excluyan de los selectores de ventanas (por ejemplo, Alt+Tab)",
        "Description[et]": "Kõigi tegumiribalt väljajäetavaks märgitud akende peitmine, et neid ei kaasataks ka aknavahetajatesse (nt Alt+Tab)",
        "Description[eu]": "'Saltatu ataza-barra' gisa markatuta dauden leiho guztiak ezkutatzen ditu leiho-kommutadoretik kanpo ere uzteko (adib., Alt+Tab)",
        "Description[fi]": "Piilottaa kaikki tehtäväpalkista poistetut ikkunat myös ikkunavaihdoista (esim. Alt+sarkain)",
        "Description[fr]": "Masque toutes les fenêtres marquées « Ignorer la barre de tâches » pour être également exclues des commutateurs de fenêtres (par ex. « ALT » + « Tab »)",
        "Description[gl]": "Agocha todas as xanelas que deban ser ignoradas pola barra de tarefas tamén dos alternadores de xanelas (p.ex. Alt+Tab).",
        "Description[he]": "הסתרת כל החלונות שמסומנים לדילוג על סרגל המשימות ממחליפי החלונות (למשל: Alt+Tab)",
        "Description[ia]": "Cela omne fenestras marcate como barra de cargas de salto pro anque esser excludite ex commutatores de fenestra (p.ex.Alt+Tab)",
        "Description[it]": "Nasconde tutte le finestre marcate come Salta barra delle applicazioni che sono escluse anche dal selettore delle finestre (es. Alt+Tab)",
        "Description[ja]": "「タスクバーをスキップ」が設定されたすべてのウィンドウをウィンドウスイッチャー (例: Alt+Tab) からも除外します",
        "Description[ka]": "Skip Taskbar-ით მონიშნული ყველა ფანჯრის Alt+Tab-დან და სხვა გადამრთველებისგან დამალვა",
        "Description[ko]": "작업 표시줄에서 건너뛰도록 표시한 창을 창 전환기에서도 표시하지 않음 (예: Alt+Tab)",
        "Description[nl]": "Verbergt alle vensters gemarkeerd als Taakbalkoverslaan om ook te worden uitgesloten van vensterschakelaars (bijv. Alt+Tab)",
        "Description[nn]": "Alle vindauge som ikkje høyrer til «oppgåvehandsamaren» vert utelatne frå «vindaugsbytaren» (eksempelvis «Alt + Tab»)",
        "Description[pl]": "Ukrywa wszystkie okna oznaczone jako \"pomiń pasek zadań\", tak aby były one wykluczone także z układów przełączania okien (np. Alt+Tab)",
        "Description[pt]": "Esconde todas as janelas marcadas como Ignorar a Barra de Tarefas para estarem também excluídas dos selectores de janelas (p.ex., Alt+Tab)",
        "Description[ru]": "Скрывает все окна, не показываемые на панели задач, чтобы исключить их также из переключателей окон (например, Alt+Tab)",
        "Description[sk]": "Skryje všetky okná označené ako Vynechať panel úloh na ich vylúčenie z prepínačov okien (napr. Alt+Tab)",
        "Description[sl]": "Skrije vsa okna, označena kot Preskoči opravilno vrstico, da bi bila izključena tudi iz preklopnikov oken (npr. izmenjalka+tabulatorka)",
        "Description[ta]": "பணிப்பட்டையில் காட்டப்படாதவாறு அமைக்கப்பட்டுள்ள சாளரங்களை, சாளரங்களுக்கிடையே தாவும்போதும் (எ.கா. Alt+Tab மூலமாக) தவிர்க்கும்",
        "Description[tr]": "Görev Çubuğunu Atla olarak imlenen tüm pencerelerin, değiştiricilerden de (örn. Seçenek+Sekme) saklanmasını sağlar",
        "Description[uk]": "Приховує всі вікна, позначені як такі, що не показуються на панелі задач, так, щоб їх не було показано у списках перемикання вікон (наприклад Alt+Tab)",
        "Description[vi]": "Ẩn tất cả các cửa sổ được đánh dấu là \"Bỏ qua thanh tác vụ\" khỏi các trình chuyển cửa sổ (vd.: Alt+Tab)",
        "Description[x-test]": "xxHides all windows marked as Skip Taskbar to be also excluded from window switchers (e.g. Alt+Tab)xx",
        "Description[zh_CN]": "窗口切换器 (Alt+Tab) 将不会显示标记为跳过任务栏的窗口",
        "Description[zh_TW]": "隱藏所有標記為忽略工作列的視窗，讓它們也從視窗切換器（如 Alt+Tab）中排除",
        "Icon": "preferences-system-windows-script-synchronizeskipswitcher",
        "Id": "synchronizeskipswitcher",
        "License": "GPL",
        "Name": "Synchronize Skip Switcher with Taskbar",
        "Name[ar]": "زامن بين مبدل التخطي و شريط المهام",
        "Name[be]": "Сінхранізацыя схаваных акон",
        "Name[bg]": "Синхронизиране на пропускане на лентата на задачите с диспечера на задачи",
        "Name[ca@valencia]": "Sincronitza «Ignora el commutador» amb la barra de tasques",
        "Name[ca]": "Sincronitza «Ignora el commutador» amb la barra de tasques",
        "Name[cs]": "Synchronizovat přepínač přeskakování s pruhem úloh",
        "Name[de]": "Fensterwechsler mit Fensterleiste abgleichen",
        "Name[en_GB]": "Synchronise Skip Switcher with Taskbar",
        "Name[eo]": "Sinkronigi Skip Switcher kun Taskbaro",
        "Name[es]": "Sincronizar «Omitir selector» con la barra de tareas",
        "Name[et]": "Vahelejätmise lülitaja sünkroonimine tegumiribaga",
        "Name[eu]": "Ataza-barrarekin kommutadorea saihestu sinkronizatzea",
        "Name[fi]": "Tahdista tehtävänvaihdon ohitus ja tehtäväpalkki",
        "Name[fr]": "Synchroniser le commutateur de saut avec la barre des tâches",
        "Name[gl]": "Sincronizar o ignorar o alternador coa barra de tarefas",
        "Name[he]": "סנכרון דילוג על מחליף חלונות עם סרגל החלונות",
        "Name[ia]": "Synchronisa Commutator de salto con Barra de carga",
        "Name[it]": "Sincronizza selettore di salto con la barra delle applicazioni",
        "Name[ja]": "スイッチャーもスキップ",
        "Name[ka]": "Skip Swtcher-ის სინქრონიზაცია მონაცემების ზოლთან",
        "Name[ko]": "작업 표시줄과 건너뛸 창 동기화",
        "Name[nl]": "Overslaanschakelaar met taakbalk synchroniseren",
        "Name[nn]": "Synkroniser «hopp over»-byte med oppgåvelinja",
        "Name[pl]": "Synchronizuj pomijanie przełącznika z paskiem zadań",
        "Name[pt]": "Sincronizar a Mudança com a Barra de Tarefas",
        "Name[ru]": "Синхронизация пропускаемых окон в переключателе с панелью задач",
        "Name[sk]": "Synchronizovať Vynechať prepínač s panelom úloh",
        "Name[sl]": "Uskladi preklopnik preskoka z opravilno vrstico",
        "Name[ta]": "மாற்றியையும் பணிப்பட்டையையும் ஒத்திசைய செய்",
        "Name[tr]": "Değiştiricide Gösterilmeyenleri Çubukta da Gösterme",
        "Name[uk]": "Синхронізувати виключення вікон у перемикачі з панеллю задач",
        "Name[vi]": "Đồng bộ hoá việc bỏ qua trình chuyển với thanh tác vụ",
        "Name[x-test]": "xxSynchronize Skip Switcher with Taskbarxx",
        "Name[zh_CN]": "窗口切换器与任务栏同步跳过窗口设置",
        "Name[zh_TW]": "同步忽略切換器標記與忽略工作列標記"
    },
    "X-Plasma-API": "javascript"
}
